{
  "forge_marker": 1,
  "variants": {
    "facing": {
      "north": {"model": "rc:none"},
      "south": {"model": "rc:none"},
      "west": {"model": "rc:none"},
      "east": {"model": "rc:none"}
    },
    "inventory":{"model":"rc:dynamic"}
  }
}