{
  "forge_marker": 1,
  "variants": {
    "facing": {
      "north": {
        "model": "rc:machine/ferm",
        "y": 0
      },
      "east": {
        "model": "rc:machine/ferm",
        "y": 90
      },
      "south": {
        "model": "rc:machine/ferm",
        "y": 180
      },
      "west": {
        "model": "rc:machine/ferm",
        "y": 270
      },
      "up": {},
      "down": {}
    },
    "active": {
      "true": {
        "textures": {"north": "rc:blocks/machine/ferm_front_active"}
      },
      "false": {
        "textures": {"north": "rc:blocks/machine/ferm_front"}
      }
    },
    "inventory": {"model": "rc:machine/ferm","textures": {"north": "rc:blocks/machine/ferm_front"}}
  }
}