{
  "forge_marker": 1,
  "variants": {
    "item": {
      "model": "forge:item-layer",
      "transform": "forge:default-item",
      "textures": {
        "layer0": "rc:items/worker_item"
      }
    },
    "fluid": {
      "model": "forge:item-layer",
      "transform": "forge:default-item",
      "textures": {
        "layer0": "rc:items/worker_fluid"
      }
    },
    "energy": {
      "model": "forge:item-layer",
      "transform": "forge:default-item",
      "textures": {
        "layer0": "rc:items/worker_energy"
      }
    }
  }
}