{
    "__comment": "Model generated using MrCrayfish's Model Creator (https://mrcrayfish.com/tools?id=mc)",
    "textures": {
        "gearbox_side": "rc:blocks/gearbox_side",
        "gearbox_bottom": "rc:blocks/gearbox_bottom",
        "gearbox_face": "rc:blocks/gearbox_face",
        "gearbox_alxs": "rc:blocks/gearbox_alxs"
    },
    "display": {
        "gui": {
            "rotation": [ 30, 45, 0 ],
            "translation": [ 0, 0, 0 ],
            "scale": [ 0.625, 0.625, 0.625 ]
        },
        "ground": {
            "rotation": [ 0, 0, 0 ],
            "translation": [ 0, 3, 0 ],
            "scale": [ 0.25, 0.25, 0.25 ]
        },
        "fixed": {
            "rotation": [ 0, 180, 0 ],
            "translation": [ 0, 0, 0 ],
            "scale": [ 1, 1, 1 ]
        },
        "head": {
            "rotation": [ 0, 180, 0 ],
            "translation": [ 0, 0, 0 ],
            "scale": [ 1, 1, 1 ]
        },
        "firstperson_righthand": {
            "rotation": [ 0, 315, 0 ],
            "translation": [ 0, 2.5, 0 ],
            "scale": [ 0.4, 0.4, 0.4 ]
        },
        "thirdperson_righthand": {
            "rotation": [ 75, 315, 0 ],
            "translation": [ 0, 2.5, 0 ],
            "scale": [ 0.375, 0.375, 0.375 ]
        }
    },
    "elements": [
        {
            "name": "face1_0",
            "from": [ 0, 1, 15 ], 
            "to": [ 16, 13, 16 ], 
            "shade": false,
            "faces": {
                "north": { "texture": "#gearbox_face", "uv": [ 0, 2, 16, 14 ] },
                "east": { "texture": "#gearbox_face", "uv": [ 0, 2, 1, 14 ] },
                "south": { "texture": "#gearbox_face", "uv": [ 0, 2, 16, 14 ] },
                "west": { "texture": "#gearbox_face", "uv": [ 0, 2, 1, 14 ] },
                "up": { "texture": "#gearbox_face", "uv": [ 0, 15, 16, 16 ] }
            }
        },
        {
            "name": "face1_1",
            "from": [ 2, 13, 15 ], 
            "to": [ 14, 15, 16 ], 
            "shade": false,
            "faces": {
                "north": { "texture": "#gearbox_face", "uv": [ 2, 0, 14, 2 ] },
                "east": { "texture": "#gearbox_face", "uv": [ 2, 0, 3, 2 ] },
                "south": { "texture": "#gearbox_face", "uv": [ 2, 0, 14, 2 ] },
                "west": { "texture": "#gearbox_face", "uv": [ 2, 0, 3, 2 ] },
                "up": { "texture": "#gearbox_face", "uv": [ 2, 0, 14, 1 ] }
            }
        },
        {
            "name": "face0_0",
            "from": [ 0, 1, 0 ], 
            "to": [ 16, 13, 1 ], 
            "shade": false,
            "faces": {
                "north": { "texture": "#gearbox_face", "uv": [ 0, 2, 16, 14 ] },
                "east": { "texture": "#gearbox_face", "uv": [ 0, 2, 1, 14 ] },
                "south": { "texture": "#gearbox_face", "uv": [ 0, 2, 16, 14 ] },
                "west": { "texture": "#gearbox_face", "uv": [ 0, 2, 1, 14 ] },
                "up": { "texture": "#gearbox_face", "uv": [ 0, 15, 16, 16 ] }
            }
        },
        {
            "name": "face0_1",
            "from": [ 2, 13, 0 ], 
            "to": [ 14, 15, 1 ], 
            "shade": false,
            "faces": {
                "north": { "texture": "#gearbox_face", "uv": [ 2, 0, 14, 2 ] },
                "east": { "texture": "#gearbox_face", "uv": [ 2, 0, 3, 2 ] },
                "south": { "texture": "#gearbox_face", "uv": [ 2, 0, 14, 2 ] },
                "west": { "texture": "#gearbox_face", "uv": [ 2, 0, 3, 2 ] },
                "up": { "texture": "#gearbox_face", "uv": [ 2, 0, 14, 1 ] }
            }
        },
        {
            "name": "plate",
            "from": [ 0, 0, 0 ], 
            "to": [ 16, 1, 16 ], 
            "shade": false,
            "faces": {
                "north": { "texture": "#gearbox_bottom", "uv": [ 0, 0, 16, 1 ] },
                "south": { "texture": "#gearbox_bottom", "uv": [ 0, 0, 16, 1 ] },
                "up": { "texture": "#gearbox_bottom", "uv": [ 0, 0, 16, 16 ] },
                "down": { "texture": "#gearbox_bottom", "uv": [ 0, 0, 16, 16 ] }
            }
        },
        {
            "name": "side0",
            "from": [ 0, 0, 0 ], 
            "to": [ 1, 7, 16 ], 
            "shade": false,
            "faces": {
                "north": { "texture": "#gearbox_side", "uv": [ 0, 9, 1, 16 ] },
                "east": { "texture": "#gearbox_side", "uv": [ 0, 9, 16, 16 ] },
                "south": { "texture": "#gearbox_side", "uv": [ 0, 9, 1, 16 ] },
                "west": { "texture": "#gearbox_side", "uv": [ 0, 9, 16, 16 ] },
                "up": { "texture": "#gearbox_bottom", "uv": [ 0, 0, 1, 16 ] }
            }
        },
        {
            "name": "sticker0",
            "from": [ 0, 7, 1 ], 
            "to": [ 1, 11, 2 ], 
            "shade": false,
            "faces": {
                "east": { "texture": "#gearbox_side", "uv": [ 0, 6, 1, 10 ] },
                "south": { "texture": "#gearbox_side", "uv": [ 0, 6, 1, 10 ] },
                "west": { "texture": "#gearbox_side", "uv": [ 0, 6, 1, 10 ] },
                "up": { "texture": "#gearbox_side", "uv": [ 0, 9, 1, 10 ] }
            }
        },
        {
            "name": "sticker1",
            "from": [ 0, 7, 14 ], 
            "to": [ 1, 11, 15 ], 
            "shade": false,
            "faces": {
                "north": { "texture": "#gearbox_side", "uv": [ 0, 6, 1, 10 ] },
                "east": { "texture": "#gearbox_side", "uv": [ 0, 6, 1, 10 ] },
                "west": { "texture": "#gearbox_side", "uv": [ 0, 6, 1, 10 ] },
                "up": { "texture": "#gearbox_side", "uv": [ 0, 9, 1, 10 ] }
            }
        },
        {
            "name": "side1",
            "from": [ 15, 0, 0 ], 
            "to": [ 16, 7, 16 ], 
            "shade": false,
            "faces": {
                "north": { "texture": "#gearbox_side", "uv": [ 0, 9, 1, 16 ] },
                "east": { "texture": "#gearbox_side", "uv": [ 0, 9, 16, 16 ] },
                "south": { "texture": "#gearbox_side", "uv": [ 0, 9, 1, 16 ] },
                "west": { "texture": "#gearbox_side", "uv": [ 0, 9, 16, 16 ] },
                "up": { "texture": "#gearbox_bottom", "uv": [ 0, 0, 1, 16 ] }
            }
        },
        {
            "name": "sticker2",
            "from": [ 15, 7, 1 ], 
            "to": [ 16, 11, 2 ], 
            "shade": false,
            "faces": {
                "east": { "texture": "#gearbox_side", "uv": [ 0, 6, 1, 10 ] },
                "south": { "texture": "#gearbox_side", "uv": [ 0, 6, 1, 10 ] },
                "west": { "texture": "#gearbox_side", "uv": [ 0, 6, 1, 10 ] },
                "up": { "texture": "#gearbox_side", "uv": [ 0, 9, 1, 10 ] }
            }
        },
        {
            "name": "sticker3",
            "from": [ 15, 7, 14 ], 
            "to": [ 16, 11, 15 ], 
            "shade": false,
            "faces": {
                "north": { "texture": "#gearbox_side", "uv": [ 0, 6, 1, 10 ] },
                "east": { "texture": "#gearbox_side", "uv": [ 0, 6, 1, 10 ] },
                "west": { "texture": "#gearbox_side", "uv": [ 0, 6, 1, 10 ] },
                "up": { "texture": "#gearbox_side", "uv": [ 0, 9, 1, 10 ] }
            }
        },
        {
            "name": "axls0",
            "from": [ 7, 7, -1 ], 
            "to": [ 9, 9, 17 ], 
            "shade": false,
            "faces": {
                "north": { "texture": "#gearbox_alxs", "uv": [ 0, 0, 1, 1 ] },
                "east": { "texture": "#gearbox_alxs", "uv": [ 0, 0, 16, 2 ] },
                "south": { "texture": "#gearbox_alxs", "uv": [ 0, 0, 1, 1 ] },
                "west": { "texture": "#gearbox_alxs", "uv": [ 0, 0, 16, 2 ] },
                "up": { "texture": "#gearbox_alxs", "uv": [ 0, 0, 16, 2 ] },
                "down": { "texture": "#gearbox_alxs", "uv": [ 0, 0, 16, 2 ] }
            }
        },
        {
            "name": "axls1",
            "from": [ 7, 7, -1 ], 
            "to": [ 9, 9, 17 ], 
            "shade": false,
            "rotation": { "origin": [ 8, 8, 8 ], "axis": "z", "angle": 45.0 },
            "faces": {
                "north": { "texture": "#gearbox_alxs", "uv": [ 0, 0, 1, 1 ] },
                "east": { "texture": "#gearbox_alxs", "uv": [ 0, 0, 16, 2 ] },
                "south": { "texture": "#gearbox_alxs", "uv": [ 0, 0, 1, 1 ] },
                "west": { "texture": "#gearbox_alxs", "uv": [ 0, 0, 16, 2 ] },
                "up": { "texture": "#gearbox_alxs", "uv": [ 0, 0, 16, 2 ] },
                "down": { "texture": "#gearbox_alxs", "uv": [ 0, 0, 16, 2 ] }
            }
        }
    ]
}